<?xml version="1.0"?>
<job>
  <recipeSet>
    <recipe id="1" status="Completed" result="PASS" checkpoint_file="checkpoint_284826.conf">
      <task name="pass-1" keepchanges="" id="1" status="Completed" result="PASS" start_time="2023-09-15T12:05:32-0400" end_time="2023-09-15T12:05:33-0400" duration="01">
        <logs>
          <log path="recipes/1/tasks/1/logs/harness.log" filename="harness.log"/>
          <log path="recipes/1/tasks/1/logs/taskout.log" filename="taskout.log"/>
        </logs>
        <fetch url="https://gitlab.com/api/v4/projects/cki-project%2fdocumentation/repository/archive.zip#content/docs/test-maintainers/status-meaning/restraint/pass"/>
        <params>
          <param name="JOB_MEMBERS" value="localhost"/>
          <param name="RECIPE_MEMBERS" value="localhost"/>
        </params>
        <results>
          <result id="1694793934" path="/" result="PASS">
            <logs>
              <log path="recipes/1/tasks/1/results/1694793934/logs/avc.log" filename="avc.log"/>
            </logs>
          </result>
        </results>
      </task>
      <task name="pass-2" keepchanges="" id="2" status="Completed" result="PASS" start_time="2023-09-15T12:05:33-0400" end_time="2023-09-15T12:05:34-0400" duration="01">
        <logs>
          <log path="recipes/1/tasks/2/logs/harness.log" filename="harness.log"/>
          <log path="recipes/1/tasks/2/logs/taskout.log" filename="taskout.log"/>
        </logs>
        <fetch url="https://gitlab.com/api/v4/projects/cki-project%2fdocumentation/repository/archive.zip#content/docs/test-maintainers/status-meaning/restraint/pass"/>
        <params>
          <param name="JOB_MEMBERS" value="localhost"/>
          <param name="RECIPE_MEMBERS" value="localhost"/>
        </params>
        <results>
          <result id="1694793938" path="/" result="PASS">
            <logs>
              <log path="recipes/1/tasks/2/results/1694793938/logs/avc.log" filename="avc.log"/>
            </logs>
          </result>
        </results>
      </task>
    </recipe>
  </recipeSet>
</job>
